probe_series_id,anomaly,count
31,,662455050
31,wrong size,7128272
31,not matching,338399
32,,395362163
32,message is truncated,44819695
32,wrong size,42578846
32,got response code 2,22308160
32,got response code 1,353256
32,got response code 5,214509
32,got response code 3,66297
32,got response code 8,574
32,got response code 4,1
