"probe_series_id","anomaly","count"
44,,377797139
44,wrong size,64137401
44,response was fragmented,58572156
44,got response code 2,19245145
44,LAST_ACK - received TCP reset,4589307
44,message is truncated,2134923
44,ESTABLISHED - out of order segment,2118803
44,got response code 5,1911949
44,SYN_SENT - received TCP reset,583233
44,ESTABLISHED - received TCP reset,92545
44,SYN_SENT - invalid ACK,83576
44,got response code 1,24371
44,got response code 3,11387
44,ESTABLISHED - TSopt missing,4701
44,CLOSED - connection closed,2830
44,FIN_WAIT_2 - received TCP reset,468
44,FIN_WAIT_2 - out of order segment,460
44,FIN_WAIT_1 - received TCP reset,206
44,SYN_SENT - expected TCP SYN,82
44,LAST_ACK - out of order segment,43
44,LAST_ACK - TSopt missing,27
44,FIN_WAIT_1 - out of order segment,25
44,got response code 6,11
44,FIN_WAIT_1 - TSopt missing,4
44,got response code 8,2
44,got response code 14,2
44,got response code 15,1
44,got response code 4,1
44,got response code 13,1
44,got response code 7,1
44,got response code 12,1
44,ESTABLISHED - expected TCP ACK,1
45,,432211944
45,LAST_ACK - received TCP reset,3566392
45,ESTABLISHED - received TCP reset,1186533
45,SYN_SENT - received TCP reset,350470
45,ESTABLISHED - out of order segment,306039
45,ESTABLISHED - TSopt missing,26591
45,CLOSED - connection closed,23055
45,SYN_SENT - invalid ACK,12420
45,LAST_ACK - TSopt missing,275
45,LAST_ACK - out of order segment,177
